{
  "openapi": "3.0.1",
  "info": {
    "title": "文章获取查询API",
    "description": "用于获取和查询文章信息的RESTful API接口",
    "version": "1.0.0"
  },
  "servers": [
    {
      "url": "/api",
      "description": "开发环境"
    },
    {
      "url": "http://117.72.187.152:80",
      "description": "生产环境"
    }
  ],
  "components": {
    "schemas": {
      "Response": {
        "type": "object",
        "properties": {
          "code": {
            "type": "integer",
            "description": "状态码，0表示成功，1表示失败"
          },
          "message": {
            "type": "string",
            "description": "响应消息"
          },
          "data": {
            "type": "object",
            "description": "响应数据"
          }
        },
        "required": ["code", "message", "data"]
      },
      "Article": {
        "type": "object",
        "properties": {
          "id": {
            "type": "integer",
            "description": "文章唯一标识"
          },
          "title": {
            "type": "string",
            "description": "文章标题"
          },
          "tags": {
            "type": "array",
            "items": {
              "type": "string"
            },
            "description": "文章标签列表"
          },
          "date": {
            "type": "string",
            "format": "date",
            "description": "发布日期 (YYYY-MM-DD)"
          },
          "wordCount": {
            "type": "integer",
            "description": "文章字数"
          },
          "contentOverview": {
            "type": "string",
            "description": "文章概览"
          },
          "content": {
            "type": "string",
            "description": "文章完整内容 (Markdown格式)"
          },
          "category": {
            "type": "string",
            "description": "文章分类"
          }
        },
        "required": ["id", "title", "tags", "date"]
      },
      "ArticleListResponse": {
        "allOf": [
          {
            "$ref": "#/components/schemas/Response"
          },
          {
            "type": "object",
            "properties": {
              "data": {
                "type": "object",
                "properties": {
                  "items": {
                    "type": "array",
                    "items": {
                      "$ref": "#/components/schemas/Article"
                    }
                  },
                  "pagination": {
                    "type": "object",
                    "properties": {
                      "page": {
                        "type": "integer"
                      },
                      "size": {
                        "type": "integer"
                      },
                      "total": {
                        "type": "integer"
                      },
                      "totalPages": {
                        "type": "integer"
                      }
                    }
                  }
                }
              }
            }
          }
        ]
      },
      "SingleArticleResponse": {
        "allOf": [
          {
            "$ref": "#/components/schemas/Response"
          },
          {
            "type": "object",
            "properties": {
              "data": {
                "$ref": "#/components/schemas/Article"
              }
            }
          }
        ]
      }
    }
  },
  "paths": {
    "/articles": {
      "get": {
        "summary": "获取文章列表",
        "description": "获取文章列表，支持分页和筛选",
        "parameters": [
          {
            "name": "page",
            "in": "query",
            "description": "页码，默认为 1",
            "required": false,
            "schema": {
              "type": "integer",
              "default": 1
            }
          },
          {
            "name": "size",
            "in": "query",
            "description": "每页数量，默认为 10，最大 100",
            "required": false,
            "schema": {
              "type": "integer",
              "default": 10,
              "maximum": 100
            }
          },
          {
            "name": "tag",
            "in": "query",
            "description": "按标签筛选",
            "required": false,
            "schema": {
              "type": "string"
            }
          },
          {
            "name": "category",
            "in": "query",
            "description": "按分类筛选",
            "required": false,
            "schema": {
              "type": "string"
            }
          }
        ],
        "responses": {
          "200": {
            "description": "成功获取文章列表",
            "content": {
              "application/json": {
                "schema": {
                  "$ref": "#/components/schemas/ArticleListResponse"
                },
                "example": {
                  "code": 0,
                  "data": {
                    "items": [
                      {
                        "id": 1,
                        "title": "给你的博客内容添加密码保护",
                        "tags": ["前端", "Vue", "JavaScript"],
                        "date": "2025-09-22",
                        "wordCount": 1400,
                        "contentOverview": "在编写博客文章时，我们可能会遇到一些敏感内容，比如个人隐私、商业机密等，这些内容我们希望只有特定读者才能访问。",
                        "category": "技术分享"
                      }
                    ],
                    "pagination": {
                      "page": 1,
                      "size": 10,
                      "total": 100,
                      "totalPages": 10
                    }
                  },
                  "message": "success"
                }
              }
            }
          },
          "400": {
            "description": "请求参数错误",
            "content": {
              "application/json": {
                "schema": {
                  "$ref": "#/components/schemas/Response"
                },
                "example": {
                  "code": 1,
                  "message": "参数错误",
                  "data": {}
                }
              }
            }
          },
          "500": {
            "description": "服务器内部错误",
            "content": {
              "application/json": {
                "schema": {
                  "$ref": "#/components/schemas/Response"
                },
                "example": {
                  "code": 1,
                  "message": "服务器内部错误",
                  "data": {}
                }
              }
            }
          }
        }
      }
    },
    "/articles/{id}": {
      "get": {
        "summary": "获取单篇文章",
        "description": "根据文章ID获取单篇文章的详细信息",
        "parameters": [
          {
            "name": "id",
            "in": "path",
            "description": "文章ID",
            "required": true,
            "schema": {
              "type": "integer"
            }
          }
        ],
        "responses": {
          "200": {
            "description": "成功获取文章详情",
            "content": {
              "application/json": {
                "schema": {
                  "$ref": "#/components/schemas/SingleArticleResponse"
                },
                "example": {
                  "code": 0,
                  "data": {
                    "id": 1,
                    "title": "给你的博客内容添加密码保护",
                    "tags": ["前端", "Vue", "JavaScript"],
                    "date": "2025-09-22",
                    "wordCount": 1400,
                    "content": "# 文章主标题\n\n## 写在前面\n\n在此处简要介绍文章的**背景**、写作动机或核心观点，吸引读者继续阅读。\n\n- **相关背景**：[可选，添加相关文章或资源链接]()\n- **预计阅读时间**：X分钟\n\n---\n\n## 正文内容\n\n### 一、背景与问题\n\n阐述相关技术背景、当前遇到的痛点或需要解决的核心问题。\n\n### 二、核心原理或方案\n\n详细展开您要讲解的技术原理、解决方案或实践经验。\n这是加粗的重点语句，这是*斜体*的术语。\n\n#### 关键步骤或子要点\n\n- **要点一**：详细说明。\n- **要点二**：详细说明。\n  - 嵌套子项：使用Tab键或四个空格进行缩进。\n- **要点三**：详细说明。",
                    "category": "技术分享"
                  },
                  "message": "success"
                }
              }
            }
          },
          "404": {
            "description": "文章未找到",
            "content": {
              "application/json": {
                "schema": {
                  "$ref": "#/components/schemas/Response"
                },
                "example": {
                  "code": 1,
                  "message": "文章未找到",
                  "data": {}
                }
              }
            }
          }
        }
      }
    },
    "/articles/search": {
      "get": {
        "summary": "搜索文章",
        "description": "根据关键词搜索文章",
        "parameters": [
          {
            "name": "keyword",
            "in": "query",
            "description": "搜索关键词",
            "required": true,
            "schema": {
              "type": "string"
            }
          },
          {
            "name": "page",
            "in": "query",
            "description": "页码，默认为 1",
            "required": false,
            "schema": {
              "type": "integer",
              "default": 1
            }
          },
          {
            "name": "size",
            "in": "query",
            "description": "每页数量，默认为 10",
            "required": false,
            "schema": {
              "type": "integer",
              "default": 10
            }
          }
        ],
        "responses": {
          "200": {
            "description": "搜索成功",
            "content": {
              "application/json": {
                "schema": {
                  "$ref": "#/components/schemas/ArticleListResponse"
                },
                "example": {
                  "code": 0,
                  "data": {
                    "items": [
                      {
                        "id": 1,
                        "title": "给你的博客内容添加密码保护",
                        "tags": ["前端", "Vue", "JavaScript"],
                        "date": "2025-09-22",
                        "wordCount": 1400,
                        "contentOverview": "在编写博客文章时，我们可能会遇到一些敏感内容，比如个人隐私、商业机密等，这些内容我们希望只有特定读者才能访问。",
                        "category": "技术分享"
                      }
                    ],
                    "pagination": {
                      "page": 1,
                      "size": 10,
                      "total": 1,
                      "totalPages": 1
                    }
                  },
                  "message": "success"
                }
              }
            }
          },
          "400": {
            "description": "请求参数错误",
            "content": {
              "application/json": {
                "schema": {
                  "$ref": "#/components/schemas/Response"
                },
                "example": {
                  "code": 1,
                  "message": "参数错误",
                  "data": {}
                }
              }
            }
          }
        }
      }
    }
  }
}